Modeling in the Tidyverse
…
Cross-validation can be used to compute this difference on out-of-sample data and a Bayesian model can be used to compute the posterior for the difference. 
]

---

# Results

.pull-left[

.code70[

```
## #  10-fold cross-validation repeated 10 times using stratification 
## # A tibble: 100 x 5
##    id       id2    full_model without_sex diff          
##  * <chr>    <chr>       <dbl>       <dbl> <chr>         
##  1 Repeat01 Fold01      0.701       0.687 worse  by 0.01
##  2 Repeat01 Fold02      0.570       0.554 worse  by 0.02
##  3 Repeat01 Fold03      0.731       0.702 worse  by 0.03
##  4 Repeat01 Fold04      0.599       0.550 worse  by 0.05
##  5 Repeat01 Fold05      0.594       0.528 worse  by 0.07
##  6 Repeat01 Fold06      0.742       0.663 worse  by 0.08
##  7 Repeat01 Fold07      0.525       0.514 worse  by 0.01
##  8 Repeat01 Fold08      0.714       0.674 worse  by 0.04
##  9 Repeat01 Fold09      0.491       0.549 better by 0.06
## 10 Repeat01 Fold10      0.764       0.692 worse  by 0.07
## # ... with 90 more rows
```
…
